…
downcorr_pairs_c
```

    ## # A tibble: 8,159 × 12
    ##    RNA      miRNA      Correlation p_value  p_adj Ctrl.nar Ctrl.our FECD_exp.nar
    ##    <chr>    <chr>            <dbl>   <dbl>  <dbl>    <dbl>    <dbl>        <dbl>
    ##  1 AAGAB    hsa-miR-1…      -0.833    0.01 0.0198     5.78     5.56         5.79
    ##  2 AAK1     hsa-miR-2…      -0.738    0.01 0.0198     6.39     6.76         6.37
    ##  3 AAK1     hsa-miR-2…      -0.762    0.03 0.0354     6.39     6.76         6.37
    ##  4 AARSD1   hsa-miR-2…      -0.738    0.02 0.0282     3.68     3.63         3.72
    ##  5 AASDHPPT hsa-miR-9…      -0.748    0.02 0.0282     5.37     5.68         5.44
    ##  6 AASS     hsa-miR-3…      -0.774    0.02 0.0282     4.86     4.77         5.62
    ##  7 ABAT     hsa-miR-1…      -0.905    0.02 0.0282     4.01     3.97         4.43
    ##  8 ABAT     hsa-miR-5…      -0.738    0.02 0.0282     4.01     3.97         4.43
    ##  9 ABCA2    hsa-miR-1…      -0.761    0.02 0.0282     5.91     6.81         5.80
    ## 10 ABCA5    hsa-miR-3…      -0.822    0.01 0.0198     6.59     7.29         5.91
    ## # ℹ 8,149 more rows
    ## # ℹ 4 more variables: FECD_noexp.nar <dbl>, FECD_exp.our <dbl>,
    ## #   FECD_noexp.our <dbl>, HCEC <dbl>
…
# add HCEC
downcorr_pairs_f <- downcorr_pairs_f %>% 
  left_join(
    HCEC_cpm %>%
      rownames_to_column(var = "Gene"), by = c("RNA" = "Gene"))

downcorr_pairs_f
```

    ## # A tibble: 11,624 × 12
    ##    RNA    miRNA        Correlation p_value  p_adj Ctrl.nar Ctrl.our FECD_exp.nar
    ##    <chr>  <chr>              <dbl>   <dbl>  <dbl>    <dbl>    <dbl>        <dbl>
    ##  1 AAAS   hsa-miR-129…      -0.810    0    0          4.48     4.80         4.48
    ##  2 AAGAB  hsa-miR-1257      -0.714    0.02 0.0279     5.78     5.56         5.79
    ##  3 AAK1   hsa-miR-125…      -0.810    0    0          6.39     6.76         6.37
    ##  4 AAK1   hsa-miR-318…      -0.707    0.06 0.0605     6.39     6.76         6.37
    ##  5 ABCA10 hsa-miR-3161      -0.714    0.03 0.0349     3.27     4.24         2.91
    ##  6 ABCA5  hsa-miR-1248      -0.714    0.04 0.0426     6.59     7.29         5.91
    ##  7 ABCA5  hsa-miR-335…      -0.714    0.06 0.0605     6.59     7.29         5.91
    ##  8 ABCA5  hsa-miR-369…      -0.738    0.04 0.0426     6.59     7.29         5.91
    ##  9 ABCA5  hsa-miR-507       -0.714    0.02 0.0279     6.59     7.29         5.91
    ## 10 ABCA5  hsa-miR-590…      -0.714    0.01 0.0196     6.59     7.29         5.91
    ## # ℹ 11,614 more rows
    ## # ℹ 4 more variables: FECD_noexp.nar <dbl>, FECD_exp.our <dbl>,
    ## #   FECD_noexp.our <dbl>, HCEC <dbl>
…
