…
# 9 Проверим FC дэгов наши и из статьи на CPM сетах

Сравниваем FC их DEG мирнк с экспрессией их миртрон-генов (которые я
получил пересечением bed) в обоих датасетах: nar, our. Так мы сможем
понять, насколько их Fold Change коррелируют с нашими данными. То же
самое потом и на наших DEG.

Добавим к названиям генов из статьи экспрессию их генов. Сначала я
добавлял из пересечения нашей таблицы против аннотации без миРНК, потом
я отдельно пересёк с ней миРНК гены из статьи, получились те же гены,
хотя в пересечении с аннотацией было всего 80/120 вхождений.

    ## # A tibble: 27 × 2
    ##    in_gene unique_mirna_count
    ##    <chr>                <int>
    ##  1 AATK                     2
    ##  2 AOPEP                    4
    ##  3 ATP11C                   2
    ##  4 BLACAT1                  2
    ##  5 C7orf50                  2
    ##  6 CCPG1                    2
    ##  7 CLCN5                    9
    ##  8 COL27A1                  2
    ##  9 COPZ1                    2
    ## 10 CTDSP1                   2
    ## # ℹ 17 more rows
…
